{
  "materials": {
    "Brilliant_Diamond_Silver": {
      "image": "Materials/Boss_Gems/Item_Brilliant_Diamond_Sliver.png",
      "rarity": 2,
      "type": "Ascension Gems",
      "innerType": "boss_drops",
      "description": "Welcome to this world.",
      "enemies": [],
      "obtained": "- Adventure Rank 15 Reward (x1)",
      "name": "Brilliant Diamond Sliver",
      "released": true,
      "wiki": "https://genshin-impact.fandom.com/wiki/Brilliant_Diamond_Sliver",
      "subCollection": {}
    },
    "Brilliant_Diamond_Fragment": {
      "image": "Materials/Boss_Gems/Item_Brilliant_Diamond_Fragment.png",
      "rarity": 3,
      "type": "Ascension Gems",
      "innerType": "boss_drops",
      "description": "Welcome to this world.",
      "enemies": [],
      "obtained": "- Adventure Rank 25 Reward (x3)\n- Adventure Rank 26 Reward (x2)\n- Adventure Rank 28 Reward (x2)\n- Adventure Rank 30 Reward (x2)",
      "name": "Brilliant Diamond Fragment",
      "released": true,
      "wiki": "https://genshin-impact.fandom.com/wiki/Brilliant_Diamond_Fragment",
      "subCollection": {}
    },
    "Brilliant_Diamond_Chunk": {
      "image": "Materials/Boss_Gems/Item_Brilliant_Diamond_Chunk.png",
      "rarity": 4,
      "type": "Ascension Gems",
      "innerType": "boss_drops",
      "description": "Welcome to this world.",
      "enemies": [],
      "obtained": "- Adventure Rank 35 Reward (x3)\n- Adventure Rank 38 Reward (x3)\n- Adventure Rank 40 Reward (x3)",
      "name": "Brilliant Diamond Chunk",
      "released": true,
      "wiki": "https://genshin-impact.fandom.com/wiki/Brilliant_Diamond_Chunk",
      "subCollection": {}
    },
    "Brilliant_Diamond_Gemstone": {
      "image": "Materials/Boss_Gems/Item_Brilliant_Diamond_Gemstone.png",
      "rarity": 5,
      "type": "Ascension Gems",
      "innerType": "boss_drops",
      "description": "Welcome to this world.",
      "enemies": [],
      "obtained": "- Adventure Rank 41 Reward (x2)\n- Adventure Rank 42 Reward (x2)\n- Adventure Rank 45 Reward (x2)",
      "name": "Brilliant Diamond Gemstone",
      "released": true,
      "wiki": "https://genshin-impact.fandom.com/wiki/Brilliant_Diamond_Gemstone",
      "subCollection": {}
    },
    "Vayuda_Turquoise_Silver": {
      "image": "Materials/Boss_Gems/Item_Vayuda_Turquoise_Sliver.png",
      "rarity": 2,
      "type": "Ascension Gems",
      "innerType": "boss_drops",
      "description": "Character Ascension Material",
      "enemies": ["Anemo Hypostasis", "Stormterror"],
      "obtained": "- Dropped by Anemo Hypostasis\n- Purchased from the Souvenir Shop\n- Dropped by Maguu Kenki\n- Dropped by Confront Stormterror I-VI\n- Possible reward from Commission Bonus Rewards",
      "name": "Vayuda Turquoise Sliver",
      "released": true,
      "wiki": "https://genshin-impact.fandom.com/wiki/Vayuda_Turquoise_Sliver",
      "subCollection": {}
    },
    "Vayuda_Turquoise_Fragment": {
      "image": "Materials/Boss_Gems/Item_Vayuda_Turquoise_Fragment.png",
      "rarity": 3,
      "type": "Ascension Gems",
      "innerType": "boss_drops",
      "description": "Still, the winds change direction.",
      "enemies": ["Anemo Hypostasis", "Stormterror", "Maguu Kenki"],
      "obtained": "- Alchemy (3x Vayuda Turquoise Silver)\n- Dropped by Lv.40+ Anemo Hypostasis\n- Dropped by Lv.40+ Maguu Kenki\n- Dropped by Confront Stormterror I-VI",
      "name": "Vayuda Turquoise Fragment",
      "released": true,
      "wiki": "https://genshin-impact.fandom.com/wiki/Vayuda_Turquoise_Fragment",
      "subCollection": {}
    },
    "Vayuda_Turquoise_Chunk": {
      "image": "Materials/Boss_Gems/Item_Vayuda_Turquoise_Chunk.png",
      "rarity": 4,
      "type": "Ascension Gems",
      "innerType": "boss_drops",
      "description": "Still, the winds change direction.\nSomeday, they will blow towards a brighter future…",
      "enemies": ["Anemo Hypostasis", "Stormterror", "Maguu Kenki"],
      "obtained": "- Alchemy (3x Vayuda Turquoise Fragment)\n- Dropped by Lv.60+ Anemo Hypostasis\n- Dropped by Lv.60+ Maguu Kenki\n- Dropped by Confront Stormterror III-VI",
      "name": "Vayuda Turquoise Chunk",
      "released": true,
      "wiki": "https://genshin-impact.fandom.com/wiki/Vayuda_Turquoise_Chunk",
      "subCollection": {}
    },
    "Vayuda_Turquoise_Gemstone": {
      "image": "Materials/Boss_Gems/Item_Vayuda_Turquoise_Gemstone.png",
      "rarity": 5,
      "type": "Ascension Gems",
      "innerType": "boss_drops",
      "description": "Still, the winds change direction.\nSomeday, they will blow towards a brighter future…\nTake my blessings and live leisurely from this day onward.",
      "enemies": ["Anemo Hypostasis", "Stormterror", "Maguu Kenki"],
      "obtained": "- Alchemy (3x Vayuda Turquoise Chunk)\n- Dropped by Lv.75+ Anemo Hypostasis\n- Dropped by Lv. 75+ Maguu Kenki\n- Dropped by Confront Stormterror V-VI",
      "name": "Vayuda Turquoise Gemstone",
      "released": true,
      "wiki": "https://genshin-impact.fandom.com/wiki/Vayuda_Turquoise_Gemstone",
      "subCollection": {}
    },
    "Shivada_Jade_Silver": {
      "image": "Materials/Boss_Gems/Item_Shivada_Jade_Sliver.png",
      "rarity": 2,
      "type": "Ascension Gems",
      "innerType": "boss_drops",
      "description": "Character Ascension Material.",
      "enemies": ["Cryo Regisvine", "Cryo Hypostasis", "Primo Geovishap", "Maguu Kenki"],
      "obtained": "- Dropped by Cryo Regisvine\n- Wolf of the North Challenge Reward\n- Purchased from the Souvenir Shop\n- Dropped by Cryo Hypostasis\n- Dropped by Primo Geovishap\n- Dropped by Maguu Kenki",
      "name": "Shivada Jade Sliver",
      "released": true,
      "wiki": "https://genshin-impact.fandom.com/wiki/Shivada_Jade_Sliver",
      "subCollection": {}
    },
    "Shivada_Jade_Fragment": {
      "image": "Materials/Boss_Gems/Item_Shivada_Jade_Fragment.png",
      "rarity": 3,
      "type": "Ascension Gems",
      "innerType": "boss_drops",
      "description": "Sorry…",
      "enemies": ["Cryo Regisvine", "Cryo Hypostasis", "Primo Geovishap", "Maguu Kenki"],
      "obtained": "- Alchemy (3x Shivada Jade Silver)\n- Dropped by Lv. 40+ Cryo Regisvine\n- Lv. 40+ Wolf of the North Challenge Reward\n- Talk to Ivanovich (one time)\n- Dropped by Lv. 40+ Cryo Hypostasis\n- Dropped by Lv. 40+ Primo Geovishap",
      "name": "Shivada Jade Fragment",
      "released": true,
      "wiki": "https://genshin-impact.fandom.com/wiki/Shivada_Jade_Fragment",
      "subCollection": {}
    },
    "Shivada_Jade_Chunk": {
      "image": "Materials/Boss_Gems/Item_Shivada_Jade_Chunk.png",
      "rarity": 4,
      "type": "Ascension Gems",
      "innerType": "boss_drops",
      "description": "Sorry...\n...to also have you shoulder the grievances of the world.",
      "enemies": ["Cryo Regisvine", "Cryo Hypostasis", "Primo Geovishap", "Maguu Kenki", "Boreas"],
      "obtained": "- Alchemy (3x Shivada Jade Fragment)\n- Dropped by Lv. 60+ Cryo Regisvine\n- Lv. 60+ Wolf of the North Challenge Reward\n- Dropped by Lv. 60+ Cryo Hypostasis\n- Dropped by Lv. 60+ Primo Geovishap\n- Dropped by Lv. 62+ Maguu Kenki",
      "name": "Shivada Jade Chunk",
      "released": true,
      "wiki": "https://genshin-impact.fandom.com/wiki/Shivada_Jade_Chunk",
      "subCollection": {}
    },
    "Shivada_Jade_Gemstone": {
      "image": "Materials/Boss_Gems/Item_Shivada_Jade_Gemstone.png",
      "rarity": 5,
      "type": "Ascension Gems",
      "innerType": "boss_drops",
      "description": "Sorry… to also have you shoulder the grievances of the world.\nSince you could endure my bitter cold, you must have the desire to burn?\nThen, burn away the old world for me.",
      "enemies": ["Cryo Regisvine", "Cryo Hypostasis", "Primo Geovishap", "Maguu Kenki", "Boreas", "Childe", "Azhada"],
      "obtained": "- Alchemy (3x Shivada Jade Chunk)\n- Dropped by Lv. 75+ Cryo Regisvine\n- Lv. 84+ Wolf of the North Challenge Reward\n- Dropped by Lv. 75+ Cryo Hypostasis\n- Dropped by Lv. 73+ Primo Geovishap\n- Dropped by Lv. 72+ Maguu Kenki\n- Lv. 80+ Enter the Golden House Reward\n- Lv. 80+ Beneath the Dragon-Queller Reward",
      "name": "Shivada Jade Gemstone",
      "released": true,
      "wiki": "https://genshin-impact.fandom.com/wiki/Shivada_Jade_Gemstone",
      "subCollection": {}
    },
    "Vajrada_Amethyst_Silver": {
      "image": "Materials/Boss_Gems/Item_Vajrada_Amethyst_Sliver.png",
      "rarity": 2,
      "type": "Ascension Gems",
      "innerType": "boss_drops",
      "description": "Character Ascension Material.",
      "enemies": ["Electro Hypostasis", "Stormterror", "Childe"],
      "obtained": "- Dropped by Electro Hypostasis\n- Purchased from the Souvenir Shop\n- Dropped by Confront Stormterror I-VI\n- Dropped by Enter the Golden House I-IV\n- Commission Bonus Rewards",
      "name": "Vajrada Amethyst Sliver",
      "released": true,
      "wiki": "https://genshin-impact.fandom.com/wiki/Vajrada_Amethyst_Sliver",
      "subCollection": {}
    },
    "Vajrada_Amethyst_Fragment": {
      "image": "Materials/Boss_Gems/Item_Vajrada_Amethyst_Fragment.png",
      "rarity": 3,
      "type": "Ascension Gems",
      "innerType": "boss_drops",
      "description": "This body is the noblest and most eminent of all in this world.",
      "enemies": ["Electro Hypostasis", "Stormterror", "Childe"],
      "obtained": "- Alchemy (3x Vajrada Amethyst Silver)\n- Dropped by Lv. 40+ Electro Hypostasis\n- Dropped by Confront Stormterror I-VI\n- Dropped by Enter the Golden House I-IV",
      "name": "Vajrada Amethyst Fragment",
      "released": true,
      "wiki": "https://genshin-impact.fandom.com/wiki/Vajrada_Amethyst_Fragment",
      "subCollection": {}
    },
    "Vajrada_Amethyst_Chunk": {
      "image": "Materials/Boss_Gems/Item_Vajrada_Amethyst_Chunk.png",
      "rarity": 4,
      "type": "Ascension Gems",
      "innerType": "boss_drops",
      "description": "This body is the noblest and most eminent of all in this world.\nIt should hold absolute control over this world.",
      "enemies": ["Electro Hypostasis", "Stormterror", "Childe"],
      "obtained": "- Alchemy (3x Vajrada Amethyst Fragment)\n- Dropped by Lv. 60+ Electro Hypostasis\n- Dropped by Confront Stormterror III-VI\n- Dropped by Enter the Golden House I-IV",
      "name": "Vajrada Amethyst Chunk",
      "released": true,
      "wiki": "https://genshin-impact.fandom.com/wiki/Vajrada_Amethyst_Chunk",
      "subCollection": {}
    },
    "Vajrada_Amethyst_Gemstone": {
      "image": "Materials/Boss_Gems/Item_Vajrada_Amethyst_Gemstone.png",
      "rarity": 5,
      "type": "Ascension Gems",
      "innerType": "boss_drops",
      "description": "This body is the noblest and most eminent of all in this world.\nIt should hold absolute control over this world.\nIt once promised its people a dream: the never-changing 'eternity.'",
      "enemies": ["Electro Hypostasis", "Stormterror", "Childe"],
      "obtained": "- Alchemy (3x Vajrada Amethyst Chunk)\n- Dropped by Lv. 75+ Electro Hypostasis\n- Dropped by Confront Stormterror V-VI\n- Dropped by Enter the Golden House III-IV",
      "name": "Vajrada Amethyst Gemstone",
      "released": true,
      "wiki": "https://genshin-impact.fandom.com/wiki/Vajrada_Amethyst_Gemstone",
      "subCollection": {}
    },
    "Prithiva_Topaz_Silver": {
      "image": "Materials/Boss_Gems/Item_Prithiva_Topaz_Sliver.png",
      "rarity": 2,
      "type": "Ascension Gems",
      "innerType": "boss_drops",
      "description": "Character Ascension Material.",
      "enemies": ["Geo Hypostasis", "Primo Geovishap", "Boreas"],
      "obtained": "- Dropped by Geo Hypostasis\n- Wolf of the North Challenge Reward\n- Purchased from the Souvenir Shop\n- Dropped by Primo Geovishap\n- Commission Bonus Rewards",
      "name": "Prithiva Topaz Sliver",
      "released": true,
      "wiki": "https://genshin-impact.fandom.com/wiki/Prithiva_Topaz_Sliver",
      "subCollection": {}
    },
    "Prithiva_Topaz_Fragment": {
      "image": "Materials/Boss_Gems/Item_Prithiva_Topaz_Fragment.png",
      "rarity": 3,
      "type": "Ascension Gems",
      "innerType": "boss_drops",
      "description": "The currencies that flow through this land are my flesh and blood.",
      "enemies": ["Geo Hypostasis", "Primo Geovishap", "Boreas"],
      "obtained": "- Alchemy (3x Prithiva Topaz Sliver)\n- Dropped by Lv. 40+ Geo Hypostasis\n- Lv. 40+ Wolf of the North Challenge Reward\n- Dropped by Lv. 40+ Primo Geovishap",
      "name": "Prithiva Topaz Fragment",
      "released": true,
      "wiki": "https://genshin-impact.fandom.com/wiki/Prithiva_Topaz_Fragment",
      "subCollection": {}
    },
    "Prithiva_Topaz_Chunk": {
      "image": "Materials/Boss_Gems/Item_Prithiva_Topaz_Chunk.png",
      "rarity": 4,
      "type": "Ascension Gems",
      "innerType": "boss_drops",
      "description": "The currencies on this land are blood.\nI am the guarantor of the people's hard work, wisdom, and future.",
      "enemies": ["Geo Hypostasis", "Primo Geovishap", "Boreas"],
      "obtained": "- Alchemy (3x Prithiva Topaz Fragment)\n- Dropped by Lv. 60+ Geo Hypostasis\n- Lv. 60+ Wolf of the North Challenge Reward\n- Dropped by Lv. 60+ Primo Geovishap",
      "name": "Prithiva Topaz Chunk",
      "released": true,
      "wiki": "https://genshin-impact.fandom.com/wiki/Prithiva_Topaz_Chunk",
      "subCollection": {}
    },
    "Prithiva_Topaz_Gemstone": {
      "image": "Materials/Boss_Gems/Item_Prithiva_Topaz_Gemstone.png",
      "rarity": 5,
      "type": "Ascension Gems",
      "innerType": "boss_drops",
      "description": "The currencies that flow through this land are my flesh and blood.\nFor thus did I become the guarantor of the people's hard work, wisdom, and future.\nThis is the trust I have placed in them. Betray it, and you taint my blood.",
      "enemies": ["Geo Hypostasis", "Primo Geovishap", "Boreas", "Azhada"],
      "obtained": "- Alchemy (3x Prithiva Topaz Chunk)\n- Dropped by Lv. 75+ Geo Hypostasis\n- Lv. 84+ Wolf of the North Challenge Reward\n- Dropped by Lv. 73+ Primo Geovishaps\n- Lv. 80+ Beneath the Dragon-Queller Reward",
      "name": "Prithiva Topaz Gemstone",
      "released": true,
      "wiki": "https://genshin-impact.fandom.com/wiki/Prithiva_Topaz_Gemstone",
      "subCollection": {}
    },
    "Varunada_Lazurite_Silver": {
      "image": "Materials/Boss_Gems/Item_Varunada_Lazurite_Sliver.png",
      "rarity": 2,
      "type": "Ascension Gems",
      "innerType": "boss_drops",
      "description": "Character Ascension Material.",
      "enemies": ["Oceanid", "Stormterror", "Childe"],
      "obtained": "- Dropped by Rhodeia of Loch\n- Purchased from the Souvenir Shop\n- Dropped by Confront Stormterror I-VI\n- Dropped by Enter the Golden House I-IV\n- Commission Bonus Rewards",
      "name": "Varunada Lazurite Sliver",
      "released": true,
      "wiki": "https://genshin-impact.fandom.com/wiki/Varunada_Lazurite_Sliver",
      "subCollection": {}
    },
    "Varunada_Lazurite_Fragment": {
      "image": "Materials/Boss_Gems/Item_Varunada_Lazurite_Fragment.png",
      "rarity": 3,
      "type": "Ascension Gems",
      "innerType": "boss_drops",
      "description": "My ideals have no stains.",
      "enemies": ["Oceanid", "Stormterror", "Childe"],
      "obtained": "- Alchemy (3x Varunada Lazurite Sliver)\n- Dropped by Lv. 40+ Rhodeia of Loch\n- Dropped by Confront Stormterror I-VI\n- Dropped by Enter the Golden House I-IV",
      "name": "Varunada Lazurite Fragment",
      "released": true,
      "wiki": "https://genshin-impact.fandom.com/wiki/Varunada_Lazurite_Fragment",
      "subCollection": {}
    },
    "Varunada_Lazurite_Chunk": {
      "image": "Materials/Boss_Gems/Item_Varunada_Lazurite_Chunk.png",
      "rarity": 4,
      "type": "Ascension Gems",
      "innerType": "boss_drops",
      "description": "My ideals have no stains.\nI must correct you. People here bear no sins in the eyes of the gods...",
      "enemies": ["Oceanid", "Stormterror", "Childe"],
      "obtained": "- Alchemy (3x Varunada Lazurite Fragment)\n- Dropped by Lv. 60+ Rhodeia of Loch\n- Dropped by Confront Stormterror III-VI\n- Dropped by Enter the Golden House I-IV",
      "name": "Varunada Lazurite Chunk",
      "released": true,
      "wiki": "https://genshin-impact.fandom.com/wiki/Varunada_Lazurite_Chunk",
      "subCollection": {}
    },
    "Varunada_Lazurite_Gemstone": {
      "image": "Materials/Boss_Gems/Item_Varunada_Lazurite_Gemstone.png",
      "rarity": 5,
      "type": "Ascension Gems",
      "innerType": "boss_drops",
      "description": "My ideals have no stains.\nI must correct you. People here bear no sins in the eyes of the gods… Only laws and the Tribunal can judge someone.\nThey can judge even me. So praise my magnificence and purity.",
      "enemies": ["Oceanid", "Stormterror", "Childe"],
      "obtained": "- Alchemy (3x Varunada Lazurite Chunk)\n- Dropped by Lv. 75+ Rhodeia of Loch\n- Dropped by Confront Stormterror V-VI\n- Dropped by Enter the Golden House III-IV",
      "name": "Varunada Lazurite Gemstone",
      "released": true,
      "wiki": "https://genshin-impact.fandom.com/wiki/Varunada_Lazurite_Gemstone",
      "subCollection": {}
    },
    "Agnidus_Agate_Silver": {
      "image": "Materials/Boss_Gems/Item_Agnidus_Agate_Sliver.png",
      "rarity": 2,
      "type": "Ascension Gems",
      "innerType": "boss_drops",
      "description": "Character Ascension Material.",
      "enemies": ["Pyro Regisvine", "Boreas", "Primo Geovishap"],
      "obtained": "- Dropped by Pyro Regisvine\n- Wolf of the North Challenge Reward\n- Purchased from the Souvenir Shop\n- Dropped by Primo Geovishap",
      "name": "Agnidus Agate Sliver",
      "released": true,
      "wiki": "https://genshin-impact.fandom.com/wiki/Agnidus_Agate_Sliver",
      "subCollection": {}
    },
    "Agnidus_Agate_Fragment": {
      "image": "Materials/Boss_Gems/Item_Agnidus_Agate_Fragment.png",
      "rarity": 3,
      "type": "Ascension Gems",
      "innerType": "boss_drops",
      "description": "A pilgrimage for a wish; a battle to earn a name...",
      "enemies": ["Pyro Regisvine", "Boreas", "Primo Geovishap"],
      "obtained": "- Alchemy (3x Agnidus Agate Silver)\n- Dropped by Lv. 40+ Pyro Regisvine\n- Lv. 40+ Wolf of the North Challenge Reward\n- Dropped by Lv. 40+ Primo Geovishap",
      "name": "Agnidus Agate Fragment",
      "released": true,
      "wiki": "https://genshin-impact.fandom.com/wiki/Agnidus_Agate_Fragment",
      "subCollection": {}
    },
    "Agnidus_Agate_Chunk": {
      "image": "Materials/Boss_Gems/Item_Agnidus_Agate_Chunk.png",
      "rarity": 4,
      "type": "Ascension Gems",
      "innerType": "boss_drops",
      "description": "A pilgrimage for a wish; a battle to earn a name…\nBurnt to cinders for a dream.",
      "enemies": ["Pyro Regisvine", "Boreas", "Primo Geovishap"],
      "obtained": "- Alchemy (3x Agnidus Agate Fragment)\n- Dropped by Lv. 60+ Pyro Regisvine\n- Lv. 60+ Wolf of the North Challenge Reward\n- Dropped by Lv. 60+ Primo Geovishap",
      "name": "Agnidus Agate Chunk",
      "released": true,
      "wiki": "https://genshin-impact.fandom.com/wiki/Agnidus_Agate_Chunk",
      "subCollection": {}
    },
    "Agnidus_Agate_Gemstone": {
      "image": "Materials/Boss_Gems/Item_Agnidus_Agate_Gemstone.png",
      "rarity": 5,
      "type": "Ascension Gems",
      "innerType": "boss_drops",
      "description": "A pilgrimage for a wish; a battle to earn a name...\nBurnt to cinders for a dream.\nIf the intention yet remains, achieved ██'s truth he has.",
      "enemies": ["Pyro Regisvine", "Boreas", "Primo Geovishap"],
      "obtained": "- Alchemy (3x Agnidus Agate Chunk)\n- Dropped by Lv. 75+ Pyro Regisvine\n- Lv. 75+ Wolf of the North Challenge Reward\n- Dropped by Lv. 75+ Primo Geovishap",
      "name": "Agnidus Agate Gemstone",
      "released": true,
      "wiki": "https://genshin-impact.fandom.com/wiki/Agnidus_Agate_Gemstone",
      "subCollection": {}
    }
  }
}