{
  "materials": {
    "Basalt_Pillar": {
      "image": "Materials/Boss_Drops/Item_Basalt_Pillar.png",
      "rarity": 4,
      "type": "Boss Drops",
      "innerType": "boss_drops",
      "description": "A pillar form by the shell of a Geo Hypostasis. It is composed of high-density Geo energy. This is the heaviest component of a Geo Element. Maybe the reason a Geo Hypostasis creates this polar out of its shell and raises itself is just to get closer to the sky, not to combat enemies.",
      "enemies": ["Geo Hypostasis"],
      "obtained": "- Dropped by Lv.30+ Geo Hypostasis",
      "name": "Basalt Pillar",
      "released": true,
      "wiki": "https://genshin-impact.fandom.com/wiki/Basalt_Pillar",
      "subCollection": {}
    },
    "Cleansing_Heart": {
      "image": "Materials/Boss_Drops/Item_Cleansing_Heart.png",
      "rarity": 4,
      "type": "Boss Drops",
      "innerType": "boss_drops",
      "description": "A scoop of eternal water left by an oceanid.\nThough it has already diffused among the depths of the lake, its purity remains all the same. But why would a creature so pure and clean as an oceanid desire the appearance of plants born of the ground and assume such a form with pure water? They need not breathe nor do they require sustenance...",
      "enemies": ["Oceanid"],
      "obtained": "- Dropped by Lv.30+ Oceanids",
      "name": "Cleansing Heart",
      "released": true,
      "wiki": "https://genshin-impact.fandom.com/wiki/Cleansing_Heart",
      "subCollection": {}
    },
    "Crystalline_Bloom": {
      "image": "Materials/Boss_Drops/Item_Crystalline_Bloom.png",
      "rarity": 4,
      "type": "Boss Drops",
      "innerType": "boss_drops",
      "description": "An ice crystal of exceeding purity that is created in the frigid blooming of a Cryo Hypostasis.\nThese frosty crystals will continue to grow according to their own cold, rigid laws, till one day a flower of winter shall bloom and freeze everything. Perhaps it is stagnant time, that never-thawing bosom, that is the essence of this undying flower.",
      "enemies": ["Cryo Hypostasis"],
      "obtained": "- Dropped by Lv.30+ Cryo Hypostasis",
      "name": "Crystalline Bloom",
      "released": true,
      "wiki": "https://genshin-impact.fandom.com/wiki/Crystalline_Bloom",
      "subCollection": {}
    },
    "Dew_of_Repudiation": {
      "image": "Materials/Boss_Drops/Item_Dew_of_Repudiation.png",
      "rarity": 4,
      "type": "Boss Drops",
      "innerType": "boss_drops",
      "description": "A strange water droplet left behind by the collapse of the Hydro Hypostasis.\nIt has strong rejection properties, and this forms the basis of one of the Hydro Hypostasis' attack patterns as well. They say that water contains memories and willpower, and that these things can grow when bodies of water meld together. However, the waves conjured by the Hydro Hypostasis are incompatible with the currents that flow above and below ground. Even if it were to flow into the surpassingly pure waters of Petrichor, this drop of water will likely resist assimilation as strongly as mercury.",
      "enemies": ["Hydro Hypostases"],
      "obtained": "- Dropped by Lv.30+ Hydro Hypostases",
      "name": "Dew of Repudiation",
      "released": true,
      "wiki": "https://genshin-impact.fandom.com/wiki/Dew_of_Repudiation",
      "subCollection": {}
    },
    "Dragonheir_False_Fin": {
      "image": "Materials/Boss_Drops/Item_Dragonheirs_False_Fin.png",
      "rarity": 4,
      "type": "Boss Drops",
      "innerType": "boss_drops",
      "description": "A piece of biological tissue that you found after defeating the Bathysmal Vishaps.\nAlthough it looks like a fin of some kind, it does not actually have any function at all\nThe people of Byakuyakoku once investigated the Bathysmal Vishaps quite deeply. Their most distinctive feature was the ability to choose what traits it wished to pass on to its offspring. Because of their great hatred for humanity, these vishaps will lose any visual acuity by the time they reach maturity. At the same time, they have evolved a certain degree of elemental polymorphism for combat purposes.",
      "enemies": ["Bathysmal Vishap"],
      "obtained": "- Dropped by Lv.30+ Bathysmal Vishap Herds",
      "name": "Dragonheir's False Fin",
      "released": true,
      "wiki": "https://genshin-impact.fandom.com/wiki/Dragonheir%27s_False_Fin",
      "subCollection": {}
    },
    "Everflame_Seed": {
      "image": "Materials/Boss_Drops/Item_Everflame_Seed.png",
      "rarity": 4,
      "type": "Boss Drops",
      "innerType": "boss_drops",
      "description": "A seed that fuels the unending flames of the Pyro Regisvine. It emits pyro energy as if it will burn all that has ever sprouted from the ground.\nEndless desires flow among turbulent energy deep within the earth. What desire could steadily hold such fire to the plants and long so eagerly to bathe everything in unquenchable flames?",
      "enemies": ["Pyro Regisvines"],
      "obtained": "- Dropped by Lv.30+ Pyro Regisvines",
      "name": "Everflame Seed",
      "released": true,
      "wiki": "https://genshin-impact.fandom.com/wiki/Everflame_Seed",
      "subCollection": {}
    },
    "Hoarfrost_Core": {
      "image": "Materials/Boss_Drops/Item_Hoarfrost_Core.png",
      "rarity": 4,
      "type": "Boss Drops",
      "innerType": "boss_drops",
      "description": "The exposed core of a defeated Cryo Regisvine. Pure cryo elements are contained within it. Energy and thoughts that swell deep within the earth will eventually erupt on the surface. Even the deathly silent frost will attach to creatures on the ground, causing even the vines and branches of vegetation to become huge and fierce, attracting the hunter's gaze.",
      "enemies": ["Cryo Regisvines"],
      "obtained": "- Dropped by Lv.30+ Cryo Regisvines",
      "name": "Hoarfrost Core",
      "released": true,
      "wiki": "https://genshin-impact.fandom.com/wiki/Hoarfrost_Core",
      "subCollection": {}
    },
    "Hurricane_Seed": {
      "image": "Materials/Boss_Drops/Item_Hurricane_Seed.png",
      "rarity": 4,
      "type": "Boss Drops",
      "innerType": "boss_drops",
      "description": "The imploded form of an Anemo Hypostasis upon its defeat. It contains the essence of Anemo energy. It is said that the power to create hurricanes resides within its seemingly fragile body. This butterfly of pure Anemo energy must be waiting for the day to conjure up storms once again.",
      "enemies": ["Anemo Hypostasis"],
      "obtained": "- Dropped by Lv.30+ Anemo Hypostasis",
      "name": "Hurricane Seed",
      "released": true,
      "wiki": "https://genshin-impact.fandom.com/wiki/Hurricane_Seed",
      "subCollection": {}
    },
    "Juvenile_Jade": {
      "image": "Materials/Boss_Drops/Item_Juvenile_Jade.png",
      "rarity": 4,
      "type": "Boss Drops",
      "innerType": "boss_drops",
      "description": "A crystalline substance taken from a Primo Geovishap. Within it is contained the potential to become a dragon.\nThese dull crystals are precipitated within the bodies of vishaps sleeping in the mountains. Liyue folklore holds that they will gather power over many years, after which this crystal will, at last, replace their original heart, and the vishap will become a true dragon — one that can shake the mountains and split the earth..",
      "enemies": ["Primo Geovishap"],
      "obtained": "- Dropped by Lv.30+ Primo Geovishap",
      "name": "Juvenile Jade",
      "released": true,
      "wiki": "https://genshin-impact.fandom.com/wiki/Juvenile_Jade",
      "subCollection": {}
    },
    "Lightning_Prism": {
      "image": "Materials/Boss_Drops/Item_Lightning_Prism.png",
      "rarity": 4,
      "type": "Boss Drops",
      "innerType": "boss_drops",
      "description": "An Electro Hypostasis channels nearby elemental energy to repair damaged elemental entities. It contains the essence of Electro energy. A common prism separates white light into component colors; a Lightning Prism, however, channels flowing energy and weaves them into lighting. It will continue to do so even after the Electro Hypostasis has been defeated.",
      "enemies": ["Electro Hypostasis"],
      "obtained": "- Dropped by Lv.30+ Electro Hypostasis",
      "name": "Lightning Prism",
      "released": true,
      "wiki": "https://genshin-impact.fandom.com/wiki/Lightning_Prism",
      "subCollection": {}
    },
    "Marionette_Core": {
      "image": "Materials/Boss_Drops/Item_Marionette_Core.png",
      "rarity": 4,
      "type": "Boss Drops",
      "innerType": "boss_drops",
      "description": "This core can power the inorganic Maguu Kenki and cause it to wield a blade like a living being.\nFlesh decays, and with it decay all martial arts mastery and all poignant memories.\nPerhaps only by converting one's four limbs and body into sturdy mechanical parts, and by at last sacrificing one's very own heart for a sophisticated mechanical one, can one transcend the impermanence of the fleshly form...",
      "enemies": ["Maguu Kenki"],
      "obtained": "- Dropped by Lv.30+ Maguu Kenki",
      "name": "Marionette Core",
      "released": true,
      "wiki": "https://genshin-impact.fandom.com/wiki/Marionette_Core",
      "subCollection": {}
    },
    "Perpetual_Heart": {
      "image": "Materials/Boss_Drops/Item_Perpetual_Heart.png",
      "rarity": 4,
      "type": "Boss Drops",
      "innerType": "boss_drops",
      "description": "The core that powers the autonomous movements of the Perpetual Mechanical Array.\nSome theorize that the symbols on these cores have knowledge and logic inscribed upon them in a language that eyes cannot perceive. Some go a step further and believe that these unique Ruin machines autonomously decided to forsake a biomimetic form to pursue strength of function on account of their especially large cores and complex inscriptions.",
      "enemies": ["Perpetual Mechanical Array"],
      "obtained": "- Dropped by Lv.30+ Perpetual Mechanical Arrays",
      "name": "Perpetual Heart",
      "released": true,
      "wiki": "https://genshin-impact.fandom.com/wiki/Perpetual_Heart",
      "subCollection": {}
    },
    "Riftborn_Regalia": {
      "image": "Materials/Boss_Drops/Item_Riftborn_Regalia.png",
      "rarity": 4,
      "type": "Boss Drops",
      "innerType": "boss_drops",
      "description": "A broken horn that you obtained from defeating the Wolflord. That said, it should not have left anything behind after your hunt.\nEven a lord among the Riftwolves is nothing before monsters of a higher pedigree.\n\"Gold\" mass-produced these malformed wolf packs almost as if by accident, like shrunken drawings on discarded sheets of paper, and the horns on this on represent its authority to command its dark brood to dissolve space itself.",
      "enemies": ["Golden Wolflord"],
      "obtained": "- Dropped by Lv.30+ Golden Wolflords",
      "name": "Riftborn Regalia",
      "released": true,
      "wiki": "https://genshin-impact.fandom.com/wiki/Riftborn_Regalia",
      "subCollection": {}
    },
    "Smoldering_Pearl": {
      "image": "Materials/Boss_Drops/Item_Smoldering_Pearl.png",
      "rarity": 4,
      "type": "Boss Drops",
      "innerType": "boss_drops",
      "description": "A crystallization of a Pyro Hypostasis that constantly emits heat.\nEven the burning flames shall one day grow cold, and even the ashen firewood can will itself back into a raging blaze. It must then be the will of the world that Pyro Hypostases should constantly cool down and heat up, much like the universe teems with endless life... until the fated darkness shall one day descend and bring it all to naught.",
      "enemies": ["Pyro Hypostasis"],
      "obtained": "- Dropped by Lv.30+ Pyro Hypostases",
      "name": "Smoldering Pearl",
      "released": true,
      "wiki": "https://genshin-impact.fandom.com/wiki/Smoldering_Pearl",
      "subCollection": {}
    },
    "Storm_Beads": {
      "image": "Materials/Boss_Drops/Item_Storm_Beads.png",
      "rarity": 4,
      "type": "Boss Drops",
      "innerType": "boss_drops",
      "description": "Crackling Electro pearls left behind by the Thunder Manifestation.\nIt is said that Thunder Manifestations will only descend upon lands where powerful hatred dwells. The singers say that it is the unbearable disappointments and sufferings of life that drive them to forever wander the broken earth, unleashing sky-searing lightning as they go.",
      "enemies": ["Thunder Manifestation"],
      "obtained": "- Dropped by Lv.30+ Thunder Manifestations",
      "name": "Storm Beads",
      "released": true,
      "wiki": "https://genshin-impact.fandom.com/wiki/Storm_Beads",
      "subCollection": {}
    },
    "Runic_Fang": {
      "image": "Materials/Boss_Drops/Item_Runic_Fang.png",
      "rarity": 4,
      "type": "Boss Drops",
      "innerType": "boss_drops",
      "description": "A “fang” with which the mysterious, snakelike machine of old dug into mountains’ depths. There are many ominous runes carved on it.\nIt is said that giant serpents lurk in the dark fissures deep beneath the ground. Burning with eternal resentment and malice toward the world above, they throw themselves into digging great tunnels, yet none know what their malicious purposes are…",
      "enemies": ["Ruin Serpent"],
      "obtained": "- Dropped by Lv.30+ Ruin Serpent",
      "name": "Runic Fang",
      "released": true,
      "wiki": "https://genshin-impact.fandom.com/wiki/Runic_Fang",
      "subCollection": {}
    }
  }
}
